How to use air • air
…
These are the family of get functions which ‘get’ data. More filters are available per function, depending on cube availability.

get_enrolment

This function logs into LERS, pulls data, and then cleans it into a tidy format. More arguments include an option to print the whole MDX query, filtering on postal codes, census divisions, and CIP codes.

get_enrolment(c("FLE", "Unique Student Static"), #supply a vector of measures
              "Gender", #rows to split data by
              "MH") #filter by institution

## Loading required package: tcltk

## Please use pop-up to authorize.

## # A tibble: 26 x 4
##    `Academic Year` Gender   FLE `Unique Student Static`
##    <chr>           <chr>  <dbl>                   <dbl>
##  1 2004-2005       Female 1542.                    2196
##  2 2004-2005       Male    784.                    1227
##  3 2005-2006       Female 1535.                    2121
##  4 2005-2006       Male    748.                    1245
##  5 2006-2007       Female 1447.                    2116
##  6 2006-2007       Male    770.                    1352
##  7 2007-2008       Female 1431.                    2093
##  8 2007-2008       Male    781.                    1362
##  9 2008-2009       Female 1390.                    2027
## 10 2008-2009       Male    814.                    1429
## # ... with 16 more rows

get_applications

This function logs into ASI, pulls data, and then cleans it into a tidy format. More arguments include an option to print the whole MDX query, filtering on postal codes, census divisions, and CIP codes.

get_applications("Unique Applicant Static", #supply a vector of measures
                 "Credential Type", #rows to split data by
                 "MH") #filter by institution

## Please use pop-up to authorize.

## # A tibble: 52 x 3
##    `Academic Year` `Credential Type` `Unique Applicant Static`
##    <chr>           <chr>                                 <dbl>
##  1 2005-2006       Certificate                             263
##  2 2005-2006       Degree                                  143
##  3 2005-2006       Diploma                                 828
##  4 2005-2006       Non-Credential                         1203
##  5 2006-2007       Certificate                             284
##  6 2006-2007       Degree                                  166
##  7 2006-2007       Diploma                                 824
##  8 2006-2007       Non-Credential                         1160
##  9 2007-2008       Certificate                             256
## 10 2007-2008       Degree                                  174
## # ... with 42 more rows

get_dcars

This function logs into both ASI and LERS, pulls data, and then cleans it into a tidy format. No filters are available yet, though this will be available in a future update.

get_dcars(c("Unique Applicant Static", "Application Record Count"), #asi measures first
          c("FLE", "Unique Student Static"), #then lers
          c("Gender", "Credential Type", "Provider"), #split by which rows?
          institutions = c("MH", "UA")) #filter on providers

## Please use pop-up to authorize.
## Please use pop-up to authorize.

## # A tibble: 239 x 8
##    `Academic Year` Gender `Credential Type` Provider    `Application Reco~
##    <chr>           <chr>  <chr>             <chr>                    <dbl>
##  1 2005-2006       Female Certificate       Medicine H~                243
##  2 2005-2006       Female Certificate       University~                 80
##  3 2005-2006       Female Degree            Medicine H~                 89
##  4 2005-2006       Female Degree            University~              23107
##  5 2005-2006       Female Diploma           Medicine H~                623
##  6 2005-2006       Female Diploma           University~                 70
##  7 2005-2006       Female Non-Credential    Medicine H~                923
##  8 2005-2006       Female Non-Credential    University~                782
##  9 2005-2006       Male   Certificate       Medicine H~                 26
## 10 2005-2006       Male   Certificate       University~                110
## # ... with 229 more rows, and 3 more variables: `Unique Applicant
## #   Static` <dbl>, FLE <dbl>, `Unique Student Static` <dbl>

get_rate

This function logs into ASI, pulls relevant data, and computes a conversion rate or acceptance rate per row and filter specifications.

get_rate("Conversion Rate", #either "Conversion Rate" or "Acceptance Rate"
         "Credential Type", #same rows in ASI
         "MH") #same filters for institution

## Please use pop-up to authorize.
## Please use pop-up to authorize.
## Please use pop-up to authorize.

## # A tibble: 52 x 3
## # Groups:   Academic Year [13]
##    `Academic Year` `Credential Type` `Conversion Rate`
##    <chr>           <chr>                         <dbl>
##  1 2005-2006       Certificate                   0.585
##  2 2005-2006       Degree                        0.714
##  3 2005-2006       Diploma                       0.636
##  4 2005-2006       Non-Credential                0.715
##  5 2006-2007       Certificate                   0.657
##  6 2006-2007       Degree                        0.583
##  7 2006-2007       Diploma                       0.640
##  8 2006-2007       Non-Credential                0.759
##  9 2007-2008       Certificate                   0.652
## 10 2007-2008       Degree                        0.658
## # ... with 42 more rows
…
